[{
	"ip": "192.168.20.137",
	"key": "vm.response.time",
	"port": "in",
	"history": [{
		"value": "7.574532096",
		"clock": "06/02/17 14:02:37"
	}, {
		"value": "7.569920000",
		"clock": "06/02/17 14:03:37"
	}, {
		"value": "7.569813504",
		"clock": "06/02/17 14:04:37"
	}, {
		"value": "7.558881280",
		"clock": "06/02/17 14:05:37"
	}, {
		"value": "7.567896576",
		"clock": "06/02/17 14:06:37"
	}, {
		"value": "7.566196736",
		"clock": "06/02/17 14:07:37"
	}, {
		"value": "8",
		"clock": "06/02/17 14:08:37"
	}, {
		"value": "7.568064512",
		"clock": "06/02/17 14:09:37"
	}, {
		"value": "7.571189760",
		"clock": "06/02/17 14:10:37"
	}, {
		"value": "7.565365248",
		"clock": "06/02/17 14:11:37"
	}]
}]