[
  {
    "children": [
      {
        "LinkProperties": {
          "admin_state_up": "true", 
          "bitrate": "3 mbits/s", 
          "latency": "high", 
          "lq": "0.0", 
          "nlq": "1.0", 
          "status": "ACTIVE", 
          "strokeDasharray": "solid", 
          "strokeWidth": "1px"
        }, 
        "children": [
          {
            "LinkProperties": {
              "admin_state_up": "true", 
              "bitrate": "3 mbits/s", 
              "latency": "high", 
              "lq": "0.0", 
              "nlq": "1.0", 
              "status": "ACTIVE", 
              "strokeDasharray": "solid", 
              "strokeWidth": "1px"
            }, 
            "id": "e46fefcbfe5dd9611391bd98ca8e281354b7cbdf7c1b0735de6d998870603741", 
            "name": "Level 3", 
            "properties": {
              "alerts": "1", 
              "circleColor": "red", 
              "imageSize": 50, 
              "imageSrc": "assets/img/6.png", 
              "ip_address": "172.17.0.1", 
              "name": "/quirky_wescoff"
            }, 
            "type": "container"
          }, 
          {
            "LinkProperties": {
              "admin_state_up": "true", 
              "bitrate": "3 mbits/s", 
              "latency": "high", 
              "lq": "0.0", 
              "nlq": "1.0", 
              "status": "ACTIVE", 
              "strokeDasharray": "solid", 
              "strokeWidth": "1px"
            }, 
            "id": "264c534cfc2e9343142e49dc646d2e60df06e4a10946736087105fbdf9afcd2b", 
            "name": "Level 3", 
            "properties": {
              "alerts": "1", 
              "circleColor": "red", 
              "imageSize": 50, 
              "imageSrc": "assets/img/6.png", 
              "ip_address": "172.17.0.2", 
              "name": "/youthful_mestorf"
            }, 
            "type": "container"
          }, 
          {
            "LinkProperties": {
              "bitrate": "3 mbits/s", 
              "status": "ACTIVE", 
              "strokeDasharray": "solid"
            }, 
            "id": "4a10946736087105fbdf9afcd2b", 
            "name": "Level 3", 
            "properties": {
              "alerts": "1", 
              "circleColor": "red", 
              "imageSize": 50, 
              "imageSrc": "assets/img/6.png", 
              "name": "tomcat"
            }, 
            "type": "application"
          }, 
          {
            "LinkProperties": {
              "bitrate": "3 mbits/s", 
              "status": "ACTIVE", 
              "strokeDasharray": "solid"
            }, 
            "id": "4a10946736087105fbdf9afcd2b", 
            "name": "Level 3", 
            "properties": {
              "alerts": "1", 
              "circleColor": "red", 
              "imageSize": 50, 
              "imageSrc": "assets/img/6.png", 
              "name": "mysql"
            }, 
            "type": "application"
          }, 
          {
            "LinkProperties": {
              "bitrate": "3 mbits/s", 
              "status": "ACTIVE", 
              "strokeDasharray": "solid"
            }, 
            "id": "4a10946736087105fbdf9afcd2b", 
            "name": "Level 3", 
            "properties": {
              "alerts": "1", 
              "circleColor": "red", 
              "imageSize": 50, 
              "imageSrc": "assets/img/6.png", 
              "name": "oracle"
            }, 
            "type": "application"
          }, 
          {
            "LinkProperties": {
              "bitrate": "3 mbits/s", 
              "status": "ACTIVE", 
              "strokeDasharray": "solid"
            }, 
            "id": "4a10946736087105fbdf9afcd2b", 
            "name": "Level 3", 
            "properties": {
              "alerts": "1", 
              "circleColor": "red", 
              "imageSize": 50, 
              "imageSrc": "assets/img/6.png", 
              "name": "weblogic"
            }, 
            "type": "application"
          }
        ], 
        "id": "33ce28ad-e159-4701-8ef0-d5ee48d02cd9", 
        "name": "Level 2", 
        "properties": {
          "alerts": "15", 
          "circleColor": "red", 
          "imageSize": 50, 
          "imageSrc": "assets/img/4.png", 
          "ip_address": "192.168.20.137", 
          "mac_address": "fe80::219:bbff:fee5:7d9e"
        }, 
        "type": "server"
      }
    ], 
    "id": "5cf6c558-e8b8-413c-b745-9ac391cnetfd", 
    "name": "Top Level", 
    "properties": {
      "alerts": "10", 
      "circleColor": "blue", 
      "imageSize": 50, 
      "imageSrc": "assets/img/5.png", 
      "ip_address": "192.168.0.0", 
      "router_name": "cisco_switch200g"
    }, 
    "type": "network:switch"
  }
]